[
  {
    "cardno": "BHM-0001",
    "showroom": "Bajaj",
    "saledate": "2023-05-10",
    "customerInfo": {
      "name": "Sagor",
      "coname": "Father",
      "address": "Bheramara, Kuahtia, Khulna",
      "number": "01964856",
      "location": "Satbaria",
      "media": "Boss - 0176231354383315",
      "guarantor1": {
        "name": "Sagor",
        "nid": "",
        "number": ""
      },
      "guarantor2": {
        "name": "Sagor",
        "nid": "",
        "number": ""
      }
    },
    "productInfo": {
      "productType": "Motorcycle",
      "productQty": "1",
      "model": "F100-6A",
      "colorbattery": "Red",
      "engine": "30069667",
      "chassis": "3007370"
    },
    "saleInfo": {
      "saleprice": "100000",
      "dpamount": "10000",
      "agreement": "2500",
      "term": "24",
      "percentage": "2",
      "insdate": "2023-05-10",
      "hireprice": "143200",
      "insamount": "5600",
      "conddate": "",
      "condamount": ""
    },
    "installment": [
      {
        "date": "2023-05-10",
        "amount": "200",
        "voucher": "43432",
        "receiver": "Sagor",
        "coments": ""
      },
      {
        "date": "",
        "amount": "4000",
        "voucher": "",
        "receiver": "",
        "coments": ""
      },
      {
        "date": "",
        "amount": "5000",
        "voucher": "",
        "receiver": "",
        "coments": ""
      }
    ]
  },
  {
    "cardno": "BHM-0002",
    "showroom": "Dashuria",
    "saledate": "2023-05-10",
    "customerInfo": {
      "name": "Helal",
      "coname": "Father",
      "address": "Bheramara, Kuahtia, Khulna",
      "number": "01123557648",
      "location": "Satbaria",
      "media": "Boss - 0176231354383315",
      "guarantor1": {
        "name": "Sagor",
        "nid": "",
        "number": ""
      },
      "guarantor2": {
        "name": "Sagor",
        "nid": "",
        "number": ""
      }
    },
    "productInfo": {
      "productType": "Motorcycle",
      "productQty": "1",
      "model": "LML",
      "colorbattery": "Red",
      "engine": "30069667",
      "chassis": "3007370"
    },
    "saleInfo": {
      "saleprice": "100000",
      "dpamount": "10000",
      "agreement": "2500",
      "term": "24",
      "percentage": "2",
      "insdate": "2023-05-10",
      "hireprice": "143200",
      "insamount": "5600",
      "conddate": "",
      "condamount": ""
    },
    "installment": [
      {
        "date": "2023-05-10",
        "amount": "200",
        "voucher": "43432",
        "receiver": "Sagor",
        "coments": ""
      },
      {
        "date": "",
        "amount": "4000",
        "voucher": "",
        "receiver": "",
        "coments": ""
      },
      {
        "date": "",
        "amount": "5000",
        "voucher": "",
        "receiver": "",
        "coments": ""
      }
    ]
  },
  {
    "cardno": "BHM-0003",
    "showroom": "Bheramara",
    "saledate": "2023-05-10",
    "customerInfo": {
      "name": "Sagor",
      "coname": "Father",
      "address": "Bheramara, Kuahtia, Khulna",
      "number": "01123557648",
      "location": "Satbaria",
      "media": "Boss - 0176231354383315",
      "guarantor1": {
        "name": "Sagor",
        "nid": "",
        "number": ""
      },
      "guarantor2": {
        "name": "Sagor",
        "nid": "",
        "number": ""
      }
    },
    "productInfo": {
      "productType": "Motorcycle",
      "productQty": "1",
      "model": "LML",
      "colorbattery": "Red",
      "engine": "30069667",
      "chassis": "3007370"
    },
    "saleInfo": {
      "saleprice": "100000",
      "dpamount": "10000",
      "agreement": "2500",
      "term": "24",
      "percentage": "2",
      "insdate": "2023-05-10",
      "hireprice": "143200",
      "insamount": "5600",
      "conddate": "",
      "condamount": ""
    },
    "installment": [
      {
        "date": "2023-05-10",
        "amount": "200",
        "voucher": "43432",
        "receiver": "Sagor",
        "coments": ""
      },
      {
        "date": "",
        "amount": "4000",
        "voucher": "",
        "receiver": "",
        "coments": ""
      },
      {
        "date": "",
        "amount": "5000",
        "voucher": "",
        "receiver": "",
        "coments": ""
      }
    ]
  },
  {
    "cardno": "BHM-0004",
    "showroom": "Bheramara",
    "saledate": "2023-05-10",
    "customerInfo": {
      "name": "Himel",
      "coname": "Father",
      "address": "Bheramara, Kuahtia, Khulna",
      "number": "01123557648",
      "location": "Satbaria",
      "media": "Boss - 0176231354383315",
      "guarantor1": {
        "name": "Sagor",
        "nid": "",
        "number": ""
      },
      "guarantor2": {
        "name": "Sagor",
        "nid": "",
        "number": ""
      }
    },
    "productInfo": {
      "productType": "Motorcycle",
      "productQty": "1",
      "model": "LML",
      "colorbattery": "Red",
      "engine": "30069667",
      "chassis": "3007370"
    },
    "saleInfo": {
      "saleprice": "100000",
      "dpamount": "10000",
      "agreement": "2500",
      "term": "24",
      "percentage": "2",
      "insdate": "2023-05-10",
      "hireprice": "143200",
      "insamount": "5600",
      "conddate": "",
      "condamount": ""
    },
    "installment": [
      {
        "date": "2023-05-10",
        "amount": "200",
        "voucher": "43432",
        "receiver": "Sagor",
        "coments": ""
      },
      {
        "date": "",
        "amount": "4000",
        "voucher": "",
        "receiver": "",
        "coments": ""
      },
      {
        "date": "",
        "amount": "5000",
        "voucher": "",
        "receiver": "",
        "coments": ""
      }
    ]
  },
  {
    "cardno": "BHM-0005",
    "showroom": "Kuahtia",
    "saledate": "2023-05-10",
    "customerInfo": {
      "name": "Sagor",
      "coname": "Father",
      "address": "Bheramara, Kuahtia, Khulna",
      "number": "01123557648",
      "location": "Satbaria",
      "media": "Boss - 0176231354383315",
      "guarantor1": {
        "name": "Sagor",
        "nid": "",
        "number": ""
      },
      "guarantor2": {
        "name": "Sagor",
        "nid": "",
        "number": ""
      }
    },
    "productInfo": {
      "productType": "Motorcycle",
      "productQty": "1",
      "model": "LML",
      "colorbattery": "Red",
      "engine": "25697",
      "chassis": "647953"
    },
    "saleInfo": {
      "saleprice": "100000",
      "dpamount": "10000",
      "agreement": "2500",
      "term": "24",
      "percentage": "2",
      "insdate": "2023-05-10",
      "hireprice": "143200",
      "insamount": "5600",
      "conddate": "",
      "condamount": ""
    },
    "installment": [
      {
        "date": "2023-05-10",
        "amount": "200",
        "voucher": "43432",
        "receiver": "Sagor",
        "coments": ""
      },
      {
        "date": "",
        "amount": "4000",
        "voucher": "",
        "receiver": "",
        "coments": ""
      },
      {
        "date": "",
        "amount": "5000",
        "voucher": "",
        "receiver": "",
        "coments": ""
      }
    ]
  }
]
